Introduction to Data Science
…
```r
drivers_F1 <- drivers_F1[-nrow(drivers_F1), ] # remove last row
drivers_F1$`Drivers' Championships` <- substr(drivers_F1$`Drivers' Championships`,
  start = 1, stop = 1
)

drivers_F1 %>%
  group_by(Nationality) %>%
  summarise(championship_country = sum(as.double(`Drivers' Championships`))) %>%
  arrange(desc(championship_country))
```

```
## # A tibble: 48 × 2
##    Nationality    championship_country
##    <chr>                         <dbl>
##  1 United Kingdom                   20
##  2 Germany                          12
##  3 Brazil                            8
##  4 Argentina                         5
##  5 Australia                         4
##  6 Austria                           4
##  7 Finland                           4
##  8 France                            4
##  9 Italy                             3
## 10 Netherlands                       2
## # … with 38 more rows
```

```r
drivers_F1 %>%
  group_by(`Driver name`) %>%
  summarise(championship_pilot = sum(as.double(`Drivers' Championships`))) %>%
  arrange(desc(championship_pilot))
```

```
## # A tibble: 868 × 2
##    `Driver name`       championship_pilot
##    <chr>                            <dbl>
##  1 Lewis Hamilton~                      7
##  2 Michael Schumacher^                  7
##  3 Juan Manuel Fangio^                  5
##  4 Alain Prost^                         4
##  5 Sebastian Vettel^                    4
##  6 Ayrton Senna^                        3
##  7 Jack Brabham^                        3
##  8 Jackie Stewart^                      3
##  9 Nelson Piquet^                       3
## 10 Niki Lauda^                          3
## # … with 858 more rows
```
…
